15 Time Series Regression – Metrics Notes
…
15.3.1 Empirical Result

f_name <- "https://raw.githubusercontent.com/my1396/course_dataset/refs/heads/main/okun.csv"
okun2 <- read_csv(f_name)
okun2 <- okun2 %>% 
    mutate(dunemp = c(NA, diff(unemp))
           )
# convert data to a time series object
okun2.zoo <- okun2 %>% 
    xts(x = .[,-1], order.by = as.yearqtr(.[[1]])) %>% 
    as.zoo()
okun2

# A tibble: 310 × 5
   date       unemp      GDP       gGDP     dunemp
   <date>     <dbl>    <dbl>      <dbl>      <dbl>
 1 1948-01-01   3.3 2239.682  1.506038  NA        
 2 1948-04-01   3.3 2276.69   1.652377   0        
 3 1948-07-01   3.3 2289.77   0.5745183  0        
 4 1948-10-01   3.5 2292.364  0.1132865  0.2000000
 5 1949-01-01   4.1 2260.807 -1.376614   0.6000000
 6 1949-04-01   5.3 2253.128 -0.3396575  1.2      
 7 1949-07-01   6.1 2276.424  1.033940   0.8      
 8 1949-10-01   6.4 2257.352 -0.8378053  0.3000000
 9 1950-01-01   5.8 2346.104  3.931686  -0.6000000
10 1950-04-01   5.1 2417.682  3.050930  -0.7      
# ℹ 300 more rows
…
