17 Spurious Regression – Metrics Notes
…
Example 1

We have two time series:

UNRATE: the U.S. unemployment rate.

LN_JAP_IP: logged Japanese industrial production

library(tidyverse)
library(readxl)
data <- read_xlsx("data/spurious_reg.xlsx")
colnames(data)[1] <- "year-quarter"
data

# A tibble: 232 × 3
   `year-quarter`   UNRATE LN_JAP_IP
   <chr>             <dbl>     <dbl>
 1 1960:01        5.133333  2.500159
 2 1960:02        5.233333  2.539725
 3 1960:03        5.533333  2.581925
 4 1960:04        6.266667  2.628351
 5 1961:01        6.8       2.682107
 6 1961:02        7         2.720609
 7 1961:03        6.766667  2.764591
 8 1961:04        6.2       2.798435
 9 1962:01        5.633333  2.831171
10 1962:02        5.533333  2.831171
# ℹ 222 more rows
…
